<?xml version="1.0" encoding="UTF-8" standalone="no"?>
<!-- Created with Inkscape (http://www.inkscape.org/) -->

<svg
   xmlns:dc="http://purl.org/dc/elements/1.1/"
   xmlns:cc="http://creativecommons.org/ns#"
   xmlns:rdf="http://www.w3.org/1999/02/22-rdf-syntax-ns#"
   xmlns:svg="http://www.w3.org/2000/svg"
   xmlns="http://www.w3.org/2000/svg"
   xmlns:sodipodi="http://sodipodi.sourceforge.net/DTD/sodipodi-0.dtd"
   xmlns:inkscape="http://www.inkscape.org/namespaces/inkscape"
   width="512"
   height="512"
   viewBox="0 0 135.46667 135.46667"
   version="1.1"
   id="svg8"
   inkscape:version="0.92.2 (unknown)"
   sodipodi:docname="numpad-artist.svg">
  <defs
     id="defs2" />
  <sodipodi:namedview
     id="base"
     pagecolor="#ffffff"
     bordercolor="#666666"
     borderopacity="1.0"
     inkscape:pageopacity="0.0"
     inkscape:pageshadow="2"
     inkscape:zoom="0.98994949"
     inkscape:cx="320.11769"
     inkscape:cy="273.51361"
     inkscape:document-units="mm"
     inkscape:current-layer="layer1"
     showgrid="false"
     fit-margin-top="0"
     fit-margin-left="0"
     fit-margin-right="0"
     fit-margin-bottom="0"
     inkscape:window-width="1243"
     inkscape:window-height="782"
     inkscape:window-x="37"
     inkscape:window-y="18"
     inkscape:window-maximized="1"
     units="px" />
  <metadata
     id="metadata5">
    <rdf:RDF>
      <cc:Work
         rdf:about="">
        <dc:format>image/svg+xml</dc:format>
        <dc:type
           rdf:resource="http://purl.org/dc/dcmitype/StillImage" />
        <dc:title></dc:title>
      </cc:Work>
    </rdf:RDF>
  </metadata>
  <g
     inkscape:label="Layer 1"
     inkscape:groupmode="layer"
     id="layer1"
     transform="translate(116.61154,-301.07301)">
    <g
       id="g17"
       transform="matrix(0.58248574,0,0,0.58248574,-48.686979,182.26154)">
      <circle
         r="116.10489"
         cy="320.43478"
         cx="-0.50664794"
         id="path34"
         style="fill:#3f324e;fill-rule:evenodd;stroke-width:0.33863926" />
      <rect
         ry="9.3225813"
         y="253.02081"
         x="-68.224846"
         height="63.963268"
         width="63.445343"
         id="rect10"
         style="fill:#e84c3d;fill-opacity:0.99559476;fill-rule:nonzero;stroke:none;stroke-width:0.0906362;stroke-linecap:round;stroke-linejoin:round;stroke-miterlimit:4;stroke-dasharray:none;stroke-dashoffset:0;stroke-opacity:1" />
      <rect
         style="fill:#3597d4;fill-opacity:0.99559476;fill-rule:nonzero;stroke:none;stroke-width:0.0906362;stroke-linecap:round;stroke-linejoin:round;stroke-miterlimit:4;stroke-dasharray:none;stroke-dashoffset:0;stroke-opacity:1"
         id="rect12"
         width="63.445343"
         height="63.963268"
         x="3.7662027"
         y="253.02081"
         ry="9.3225813" />
      <rect
         style="fill:#cc66a5;fill-opacity:0.99559476;fill-rule:nonzero;stroke:none;stroke-width:0.0906362;stroke-linecap:round;stroke-linejoin:round;stroke-miterlimit:4;stroke-dasharray:none;stroke-dashoffset:0;stroke-opacity:1"
         id="rect14"
         width="63.445343"
         height="63.963268"
         x="-68.224846"
         y="323.88547"
         ry="9.3225813" />
      <rect
         ry="9.3225813"
         y="323.88547"
         x="3.7662027"
         height="63.963268"
         width="63.445343"
         id="rect16"
         style="fill:#e77e23;fill-opacity:0.99559476;fill-rule:nonzero;stroke:none;stroke-width:0.0906362;stroke-linecap:round;stroke-linejoin:round;stroke-miterlimit:4;stroke-dasharray:none;stroke-dashoffset:0;stroke-opacity:1" />
    </g>
  </g>
</svg>
